{
	"process_id" : 20299,
	"version" : "2022.2.0b13",
	"app_path" : "/Applications/Unity/Hub/Editor/2022.2.0b13/Unity.app",
	"app_contents_path" : "/Applications/Unity/Hub/Editor/2022.2.0b13/Unity.app/Contents"
}