Library/Bee/artifacts/mvdfrm/UnityEditor.TestRunner.ref.dll_DE1D13444BAAFBE7.mvfrm
Library/Bee/artifacts/mvdfrm/UnityEditor.UI.ref.dll_BD0E97F52A0DF729.mvfrm
Library/Bee/artifacts/mvdfrm/UnityEngine.TestRunner.ref.dll_AA3B5DF2776E59D2.mvfrm
Library/Bee/artifacts/mvdfrm/UnityEngine.UI.ref.dll_79746E5030301F94.mvfrm
Library/Bee/artifacts/mvdfrm/Unity.Android.Gradle.dll_AE5AF6CD37D96F2D.mvfrm
Library/Bee/artifacts/mvdfrm/Unity.Android.GradleProject.dll_2A84C1DEFDD39258.mvfrm
Library/Bee/artifacts/mvdfrm/Unity.Android.Types.dll_20A1EC876860AD5F.mvfrm
Library/Bee/artifacts/mvdfrm/UnityEditor.Android.Extensions.dll_62817BFF8B37D98D.mvfrm
Library/Bee/artifacts/mvdfrm/UnityEditor.AppleTV.Extensions.dll_665F98772F0502AB.mvfrm
Library/Bee/artifacts/mvdfrm/UnityEditor.iOS.Extensions.Xcode.dll_9D8F0D0966E54F81.mvfrm
Library/Bee/artifacts/mvdfrm/UnityEditor.iOS.Extensions.Common.dll_35D475AB185B63EA.mvfrm
Library/Bee/artifacts/mvdfrm/UnityEditor.iOS.Extensions.dll_2CB3C2292DA1F01B.mvfrm
Library/Bee/artifacts/mvdfrm/UnityEditor.iOS.Extensions.Xcode.dll_E0526764672CA902.mvfrm
Library/Bee/artifacts/mvdfrm/UnityEditor.LinuxStandalone.Extensions.dll_D1FDC0DFC0C4BE9B.mvfrm
Library/Bee/artifacts/mvdfrm/UnityEditor.WebGL.Extensions.dll_30EA51C7AEB174BB.mvfrm
Library/Bee/artifacts/mvdfrm/UnityEditor.WindowsStandalone.Extensions.dll_8F77BE0576DBF82B.mvfrm
Library/Bee/artifacts/mvdfrm/UnityEditor.Graphs.dll_1895ACE9D7047FD5.mvfrm
Library/Bee/artifacts/mvdfrm/UnityEditor.CoreModule.dll_353890ECE45258A3.mvfrm
Library/Bee/artifacts/mvdfrm/UnityEditor.DeviceSimulatorModule.dll_872E23E84B4EAB8E.mvfrm
Library/Bee/artifacts/mvdfrm/UnityEditor.DiagnosticsModule.dll_812981E69C0C4A5C.mvfrm
Library/Bee/artifacts/mvdfrm/UnityEditor.dll_1D56E4590042CF82.mvfrm
Library/Bee/artifacts/mvdfrm/UnityEditor.EditorToolbarModule.dll_8EC05378C3CFF39E.mvfrm
Library/Bee/artifacts/mvdfrm/UnityEditor.GraphViewModule.dll_8B5B3BC5E8ABBAB3.mvfrm
Library/Bee/artifacts/mvdfrm/UnityEditor.PresetsUIModule.dll_46C174A7EB0412B8.mvfrm
Library/Bee/artifacts/mvdfrm/UnityEditor.PropertiesModule.dll_94DCC594AA813DB7.mvfrm
Library/Bee/artifacts/mvdfrm/UnityEditor.QuickSearchModule.dll_0C3902F3F4E346B5.mvfrm
Library/Bee/artifacts/mvdfrm/UnityEditor.SceneTemplateModule.dll_B25FC436C2BC9DD6.mvfrm
Library/Bee/artifacts/mvdfrm/UnityEditor.SceneViewModule.dll_CA0B1ECDDDCE87C1.mvfrm
Library/Bee/artifacts/mvdfrm/UnityEditor.TextCoreFontEngineModule.dll_1B3C37C3209E76C1.mvfrm
Library/Bee/artifacts/mvdfrm/UnityEditor.TextCoreTextEngineModule.dll_63246E34B0222FDF.mvfrm
Library/Bee/artifacts/mvdfrm/UnityEditor.UIBuilderModule.dll_DFE3E8E25B6433E7.mvfrm
Library/Bee/artifacts/mvdfrm/UnityEditor.UIElementsModule.dll_BFB9C0B02A7992FF.mvfrm
Library/Bee/artifacts/mvdfrm/UnityEditor.UIElementsSamplesModule.dll_AA1ADC2319AFE35E.mvfrm
Library/Bee/artifacts/mvdfrm/UnityEditor.UnityConnectModule.dll_F7020461ADD858D9.mvfrm
Library/Bee/artifacts/mvdfrm/UnityEngine.AccessibilityModule.dll_E5052FCDC332C573.mvfrm
Library/Bee/artifacts/mvdfrm/UnityEngine.AIModule.dll_86B6B53EEA00F097.mvfrm
Library/Bee/artifacts/mvdfrm/UnityEngine.AndroidJNIModule.dll_3E02A983739901D5.mvfrm
Library/Bee/artifacts/mvdfrm/UnityEngine.AnimationModule.dll_59E0B7EEC3088F59.mvfrm
Library/Bee/artifacts/mvdfrm/UnityEngine.ARModule.dll_40297A42471E4F60.mvfrm
Library/Bee/artifacts/mvdfrm/UnityEngine.AssetBundleModule.dll_502235E55749FBA7.mvfrm
Library/Bee/artifacts/mvdfrm/UnityEngine.AudioModule.dll_0CC6ABF159ACF20B.mvfrm
Library/Bee/artifacts/mvdfrm/UnityEngine.ClothModule.dll_73AF08EC33C9D0EF.mvfrm
Library/Bee/artifacts/mvdfrm/UnityEngine.ClusterInputModule.dll_769E79775F602B9F.mvfrm
Library/Bee/artifacts/mvdfrm/UnityEngine.ClusterRendererModule.dll_8CDAE659BB09B912.mvfrm
Library/Bee/artifacts/mvdfrm/UnityEngine.ContentLoadModule.dll_E9388F2625CCA394.mvfrm
Library/Bee/artifacts/mvdfrm/UnityEngine.CoreModule.dll_5859643F8C57C3CE.mvfrm
Library/Bee/artifacts/mvdfrm/UnityEngine.CrashReportingModule.dll_AD705E42BBCFC426.mvfrm
Library/Bee/artifacts/mvdfrm/UnityEngine.DirectorModule.dll_0228FC296BA9956B.mvfrm
Library/Bee/artifacts/mvdfrm/UnityEngine.dll_4FFB2B315EB65C67.mvfrm
Library/Bee/artifacts/mvdfrm/UnityEngine.DSPGraphModule.dll_077A5D92DE0A668C.mvfrm
Library/Bee/artifacts/mvdfrm/UnityEngine.GameCenterModule.dll_684FF39E39D9F2C6.mvfrm
Library/Bee/artifacts/mvdfrm/UnityEngine.GIModule.dll_1EF2FE4C85AFD8B1.mvfrm
Library/Bee/artifacts/mvdfrm/UnityEngine.GridModule.dll_35CA802DA4AC59C5.mvfrm
Library/Bee/artifacts/mvdfrm/UnityEngine.HotReloadModule.dll_DB2975F49E3BAADB.mvfrm
Library/Bee/artifacts/mvdfrm/UnityEngine.ImageConversionModule.dll_F8CCE40A3D2E7106.mvfrm
Library/Bee/artifacts/mvdfrm/UnityEngine.IMGUIModule.dll_45264B581FDE85EC.mvfrm
Library/Bee/artifacts/mvdfrm/UnityEngine.InputLegacyModule.dll_E1675103EF3BB198.mvfrm
Library/Bee/artifacts/mvdfrm/UnityEngine.InputModule.dll_733C73A1CFE516AF.mvfrm
Library/Bee/artifacts/mvdfrm/UnityEngine.JSONSerializeModule.dll_451CB909C26E25FD.mvfrm
Library/Bee/artifacts/mvdfrm/UnityEngine.LocalizationModule.dll_B4EB43C9F6DC1E98.mvfrm
Library/Bee/artifacts/mvdfrm/UnityEngine.NVIDIAModule.dll_7407B2ACD88D9DFA.mvfrm
Library/Bee/artifacts/mvdfrm/UnityEngine.ParticleSystemModule.dll_0082A78F29E14FB4.mvfrm
Library/Bee/artifacts/mvdfrm/UnityEngine.PerformanceReportingModule.dll_AF56A745CEAAA68D.mvfrm
Library/Bee/artifacts/mvdfrm/UnityEngine.Physics2DModule.dll_A686A7DF640586EE.mvfrm
Library/Bee/artifacts/mvdfrm/UnityEngine.PhysicsModule.dll_C7957AF3C49F1C3C.mvfrm
Library/Bee/artifacts/mvdfrm/UnityEngine.ProfilerModule.dll_346F356005031C78.mvfrm
Library/Bee/artifacts/mvdfrm/UnityEngine.PropertiesModule.dll_958B32DCACC55702.mvfrm
Library/Bee/artifacts/mvdfrm/UnityEngine.RuntimeInitializeOnLoadManagerInitializerModule.dll_E6587CB556D5D3B7.mvfrm
Library/Bee/artifacts/mvdfrm/UnityEngine.ScreenCaptureModule.dll_5F04668ED6DA525F.mvfrm
Library/Bee/artifacts/mvdfrm/UnityEngine.SharedInternalsModule.dll_7CDE22DFB45C6C56.mvfrm
Library/Bee/artifacts/mvdfrm/UnityEngine.SpriteMaskModule.dll_517C662E5B498840.mvfrm
Library/Bee/artifacts/mvdfrm/UnityEngine.SpriteShapeModule.dll_698363400CEC33B1.mvfrm
Library/Bee/artifacts/mvdfrm/UnityEngine.StreamingModule.dll_0E75A53F12904697.mvfrm
Library/Bee/artifacts/mvdfrm/UnityEngine.SubstanceModule.dll_EB20B9885DE344A5.mvfrm
Library/Bee/artifacts/mvdfrm/UnityEngine.SubsystemsModule.dll_BC29CC9029917053.mvfrm
Library/Bee/artifacts/mvdfrm/UnityEngine.TerrainModule.dll_E1DBF6629A5D652A.mvfrm
Library/Bee/artifacts/mvdfrm/UnityEngine.TerrainPhysicsModule.dll_00FD506243244A41.mvfrm
Library/Bee/artifacts/mvdfrm/UnityEngine.TextCoreFontEngineModule.dll_999BB316339C358C.mvfrm
Library/Bee/artifacts/mvdfrm/UnityEngine.TextCoreTextEngineModule.dll_E183E987C31FEEAA.mvfrm
Library/Bee/artifacts/mvdfrm/UnityEngine.TextRenderingModule.dll_8843D8998E11D254.mvfrm
Library/Bee/artifacts/mvdfrm/UnityEngine.TilemapModule.dll_80D85DE3B21A4633.mvfrm
Library/Bee/artifacts/mvdfrm/UnityEngine.TLSModule.dll_87D55E93E90DFE10.mvfrm
Library/Bee/artifacts/mvdfrm/UnityEngine.UIElementsModule.dll_C0682DF82CBDAC4A.mvfrm
Library/Bee/artifacts/mvdfrm/UnityEngine.UIModule.dll_822A536C4647F643.mvfrm
Library/Bee/artifacts/mvdfrm/UnityEngine.UmbraModule.dll_879B5809E6D39D7E.mvfrm
Library/Bee/artifacts/mvdfrm/UnityEngine.UnityAnalyticsCommonModule.dll_4A956489E89344EB.mvfrm
Library/Bee/artifacts/mvdfrm/UnityEngine.UnityAnalyticsModule.dll_20221858D608A1B0.mvfrm
Library/Bee/artifacts/mvdfrm/UnityEngine.UnityConnectModule.dll_E4618870A8605984.mvfrm
Library/Bee/artifacts/mvdfrm/UnityEngine.UnityCurlModule.dll_8CFD5920331C8146.mvfrm
Library/Bee/artifacts/mvdfrm/UnityEngine.UnityTestProtocolModule.dll_65DD921573AB38B4.mvfrm
Library/Bee/artifacts/mvdfrm/UnityEngine.UnityWebRequestAssetBundleModule.dll_F8D81B1AFB6C8881.mvfrm
Library/Bee/artifacts/mvdfrm/UnityEngine.UnityWebRequestAudioModule.dll_2752FB2455157125.mvfrm
Library/Bee/artifacts/mvdfrm/UnityEngine.UnityWebRequestModule.dll_0A6BEBB448230B85.mvfrm
Library/Bee/artifacts/mvdfrm/UnityEngine.UnityWebRequestTextureModule.dll_EA0D5439408ECD9A.mvfrm
Library/Bee/artifacts/mvdfrm/UnityEngine.UnityWebRequestWWWModule.dll_AC462EE3B2DFAB16.mvfrm
Library/Bee/artifacts/mvdfrm/UnityEngine.VehiclesModule.dll_79EBF5A8E5D36506.mvfrm
Library/Bee/artifacts/mvdfrm/UnityEngine.VFXModule.dll_08B3F702BF7B677D.mvfrm
Library/Bee/artifacts/mvdfrm/UnityEngine.VideoModule.dll_31D0305C1C3F0DB0.mvfrm
Library/Bee/artifacts/mvdfrm/UnityEngine.VirtualTexturingModule.dll_209100F62549B8EC.mvfrm
Library/Bee/artifacts/mvdfrm/UnityEngine.VRModule.dll_D4FC79F1E8027BBB.mvfrm
Library/Bee/artifacts/mvdfrm/UnityEngine.WindModule.dll_CEA83F681D8E4237.mvfrm
Library/Bee/artifacts/mvdfrm/UnityEngine.XRModule.dll_07BB3CF6713CC919.mvfrm
Library/Bee/artifacts/mvdfrm/UnityEditor.OSXStandalone.Extensions.dll_5231DC5552CFAD58.mvfrm
Library/Bee/artifacts/mvdfrm/Unity.Plastic.Antlr3.Runtime.dll_2FDCB6D7D3D875B2.mvfrm
Library/Bee/artifacts/mvdfrm/Unity.Plastic.Newtonsoft.Json.dll_8350C897BEDDAB63.mvfrm
Library/Bee/artifacts/mvdfrm/Unity.VisualScripting.IonicZip.dll_3BC3E19486E7541D.mvfrm
Library/Bee/artifacts/mvdfrm/Unity.VisualScripting.YamlDotNet.dll_AD6B6FA48234C86F.mvfrm
Library/Bee/artifacts/mvdfrm/Unity.VisualScripting.TextureAssets.dll_448998F843022667.mvfrm
Library/Bee/artifacts/mvdfrm/Unity.VisualScripting.Antlr3.Runtime.dll_5ED89685B2FDD88E.mvfrm